*** Life<ConwayCell> 4x4 ***

Generation = 0, Population = 4.
....
.**.
.**.
....

Generation = 1, Population = 4.
....
.**.
.**.
....

*** Life<ConwayCell> 5x5 ***

Generation = 0, Population = 3.
.....
.....
.***.
.....
.....

Generation = 1, Population = 3.
.....
..*..
..*..
..*..
.....

Generation = 2, Population = 3.
.....
.....
.***.
.....
.....

*** Life<ConwayCell> 5x5 ***

Generation = 0, Population = 4.
.....
..*..
.*.*.
..*..
.....

Generation = 1, Population = 4.
.....
..*..
.*.*.
..*..
.....

*** Life<ConwayCell> 5x6 ***

Generation = 0, Population = 6.
......
..**..
.*..*.
..**..
......

Generation = 1, Population = 6.
......
..**..
.*..*.
..**..
......

*** Life<ConwayCell> 6x6 ***

Generation = 0, Population = 5.
......
..*...
...*..
.***..
......
......

Generation = 1, Population = 5.
......
......
.*.*..
..**..
..*...
......

Generation = 2, Population = 5.
......
......
...*..
.*.*..
..**..
......

Generation = 3, Population = 5.
......
......
..*...
...**.
..**..
......

Generation = 4, Population = 5.
......
......
...*..
....*.
..***.
......

*** Life<ConwayCell> 38x22 ***

Generation = 0, Population = 10.
*.....................
......................
......................
..***.................
......................
......................
......................
......................
......................
......................
......................
......................
......................
......................
......................
......................
....................*.
....................*.
....................*.
......................
......................
......................
......................
......................
......................
......................
......................
......................
......................
......................
......................
.................***..
......................
......................
......................
......................
......................
......................

Generation = 1, Population = 9.
......................
......................
...*..................
...*..................
...*..................
......................
......................
......................
......................
......................
......................
......................
......................
......................
......................
......................
......................
...................***
......................
......................
......................
......................
......................
......................
......................
......................
......................
......................
......................
......................
..................*...
..................*...
..................*...
......................
......................
......................
......................
......................

Generation = 2, Population = 9.
......................
......................
......................
..***.................
......................
......................
......................
......................
......................
......................
......................
......................
......................
......................
......................
......................
....................*.
....................*.
....................*.
......................
......................
......................
......................
......................
......................
......................
......................
......................
......................
......................
......................
.................***..
......................
......................
......................
......................
......................
......................

Generation = 3, Population = 9.
......................
......................
...*..................
...*..................
...*..................
......................
......................
......................
......................
......................
......................
......................
......................
......................
......................
......................
......................
...................***
......................
......................
......................
......................
......................
......................
......................
......................
......................
......................
......................
......................
..................*...
..................*...
..................*...
......................
......................
......................
......................
......................

Generation = 4, Population = 9.
......................
......................
......................
..***.................
......................
......................
......................
......................
......................
......................
......................
......................
......................
......................
......................
......................
....................*.
....................*.
....................*.
......................
......................
......................
......................
......................
......................
......................
......................
......................
......................
......................
......................
.................***..
......................
......................
......................
......................
......................
......................

Generation = 5, Population = 9.
......................
......................
...*..................
...*..................
...*..................
......................
......................
......................
......................
......................
......................
......................
......................
......................
......................
......................
......................
...................***
......................
......................
......................
......................
......................
......................
......................
......................
......................
......................
......................
......................
..................*...
..................*...
..................*...
......................
......................
......................
......................
......................

*** Life<ConwayCell> 4x4 ***

Generation = 0, Population = 9.
*...
.***
.***
.*.*

Generation = 3, Population = 7.
.**.
*..*
*.*.
.*..

Generation = 6, Population = 7.
.**.
*..*
*.*.
.*..

Generation = 9, Population = 7.
.**.
*..*
*.*.
.*..

Generation = 12, Population = 7.
.**.
*..*
*.*.
.*..

Generation = 15, Population = 7.
.**.
*..*
*.*.
.*..

Generation = 18, Population = 7.
.**.
*..*
*.*.
.*..

Generation = 21, Population = 7.
.**.
*..*
*.*.
.*..

Generation = 24, Population = 7.
.**.
*..*
*.*.
.*..

Generation = 27, Population = 7.
.**.
*..*
*.*.
.*..

*** Life<ConwayCell> 6x9 ***

Generation = 0, Population = 8.
*........
.*.......
.....*...
...*..*..
......*..
....*...*

Generation = 2, Population = 3.
.........
.........
.........
.....**..
.....*...
.........

Generation = 4, Population = 4.
.........
.........
.........
.....**..
.....**..
.........

Generation = 6, Population = 4.
.........
.........
.........
.....**..
.....**..
.........

*** Life<ConwayCell> 50x48 ***

Generation = 0, Population = 16.
................................................
........................................*.......
.*..............................................
................................................
................................................
..*.....*.......................................
................................................
........*.......................................
................................................
..*.............................................
................................................
................................................
................................................
................................................
................................................
................................................
................................................
................................................
................................................
................................................
........................................*....*..
................................................
................................................
..........................................*.....
...........................*....................
................................................
...........................*....................
................................................
..........*.....................................
................................................
........................................*.......
........................................*.......
................................................
................................................
................................................
................................................
................................................
................................................
................................................
................................................
.*..............................................
......................*.........................
................................................
................................................
................................................
................................................
................................................
................................................
................................................
................................................

Generation = 3, Population = 0.
................................................
................................................
................................................
................................................
................................................
................................................
................................................
................................................
................................................
................................................
................................................
................................................
................................................
................................................
................................................
................................................
................................................
................................................
................................................
................................................
................................................
................................................
................................................
................................................
................................................
................................................
................................................
................................................
................................................
................................................
................................................
................................................
................................................
................................................
................................................
................................................
................................................
................................................
................................................
................................................
................................................
................................................
................................................
................................................
................................................
................................................
................................................
................................................
................................................
................................................

Generation = 6, Population = 0.
................................................
................................................
................................................
................................................
................................................
................................................
................................................
................................................
................................................
................................................
................................................
................................................
................................................
................................................
................................................
................................................
................................................
................................................
................................................
................................................
................................................
................................................
................................................
................................................
................................................
................................................
................................................
................................................
................................................
................................................
................................................
................................................
................................................
................................................
................................................
................................................
................................................
................................................
................................................
................................................
................................................
................................................
................................................
................................................
................................................
................................................
................................................
................................................
................................................
................................................

*** Life<ConwayCell> 3x3 ***

Generation = 0, Population = 3.
*..
.*.
..*

Generation = 1, Population = 1.
...
.*.
...

Generation = 2, Population = 0.
...
...
...
