*** Life<FredkinCell> 1x1 ***

Generation = 0, Population = 1.
0

Generation = 10, Population = 0.
-

Generation = 20, Population = 0.
-

Generation = 30, Population = 0.
-

Generation = 40, Population = 0.
-

Generation = 50, Population = 0.
-

*** Life<FredkinCell> 3x3 ***

Generation = 0, Population = 3.
-0-
-0-
-0-

Generation = 10, Population = 0.
---
---
---

Generation = 20, Population = 0.
---
---
---

*** Life<FredkinCell> 20x20 ***

Generation = 0, Population = 19.
--------------------
--0000000000--------
---0----------------
---0----------------
--0000--------------
--------------------
---00---------------
--------------------
------0-------------
--------------------
--------------------
--------------------
--------------------
--------------------
--------------------
--------------------
--------------------
--------------------
--------------------
--------------------

Generation = 1, Population = 40.
--0000000000--------
-011-------10-------
-----0000000--------
-----0--------------
-011-10-------------
--0--0--------------
--0110--------------
---00-0-------------
-----0-0------------
------0-------------
--------------------
--------------------
--------------------
--------------------
--------------------
--------------------
--------------------
--------------------
--------------------
--------------------

Generation = 2, Population = 36.
---1----------------
012-------0210------
-0000---------------
-0000-000000--------
0122-210------------
---0----------------
-0-22---------------
--------------------
---0----0-----------
--------------------
------0-------------
--------------------
--------------------
--------------------
--------------------
--------------------
--------------------
--------------------
--------------------
--------------------

Generation = 3, Population = 59.
00--0-----0000------
12-10----01--10-----
-1-1-00000--00------
-1---0-1---10-------
1233032--000--------
0----000------------
0---30--------------
-0--0---0-----------
--0-0--0-0----------
---0--0-0-----------
-----0-0------------
------0-------------
--------------------
--------------------
--------------------
--------------------
--------------------
--------------------
--------------------
--------------------

Generation = 4, Population = 40.
--0-10--------------
-3----00----1210----
---20--1------------
-------2------------
-3-----001----------
--0001110000--------
1--2---00-----------
---0----------------
---010----0---------
--------------------
---00---------------
--------------------
------0-------------
--------------------
--------------------
--------------------
--------------------
--------------------
--------------------
--------------------

Generation = 5, Population = 70.
----21-0----0000----
1--1--1-0--22--10---
-10310--0---0000----
-1-00-0--0----------
1--303-11--0--------
0-11-----1-10-------
-0---0----00--------
0-0--0-00-0---------
--0--10--0-0--------
-----0----0---------
--0110--------------
---00-0-------------
-----0-0------------
------0-------------
--------------------
--------------------
--------------------
--------------------
--------------------
--------------------

Generation = 6, Population = 87.
0---320-------------
---200-01013321210--
----21011-----------
-2011---0-010000----
2--414222101--------
102----1--0210------
1-0231000-----------
-0100-011010--------
0010121-----0-------
---0----------------
-0122-----0---------
--------------------
---0----0-----------
--------------------
------0-------------
--------------------
--------------------
--------------------
--------------------
--------------------

Generation = 7, Population = 105.
-0---31-0000000000--
1-23-1--2--------10-
-10332-22-------00--
-3-220-2-0-2---10---
333-2--33--20-00----
2--1--1-0--3-10-----
2-134-1-----00------
0---1-122--1--------
112-2---000--0------
0-0-000---0-0-------
01-330---0-0--------
-00-0---0-0---------
--0-0--0-0----------
---0--0-0-----------
-----0-0------------
------0-------------
--------------------
--------------------
--------------------
--------------------

Generation = 8, Population = 61.
---13-2-------------
----0-----1332121210
--1-43-----0--------
-----------3--------
-44-3-----0310------
--2201211104--------
--24-------01-------
--------------------
2-------------0-----
--1011100010--------
---4----------------
---0----------------
--1010--------------
--------------------
---00---------------
--------------------
------0-------------
--------------------
--------------------
--------------------

Generation = 9, Population = 107.
--02---0--0000000000
--2---1--024-------1
-1---40------0000000
-3---0-------0------
35-44-233----10-----
--331-----1511------
-0---11000--20------
0-10-------10-0-----
-12022100000-0-0----
0021-------10-0-----
-----0000000--------
-----0--------------
-021-10-------------
--0--0--------------
--0110--------------
---00-0-------------
-----0-0------------
------0-------------
--------------------
--------------------

Generation = 10, Population = 95.
-0-33---0--1--------
--3---2-213-------1-
02--4--2-0000-------
--02-1020---0-010000
4-4--43-4103-210----
2044------2-22------
--2--2---1-03-------
--------------------
2----------1----0---
113-------1210------
01143---------0-----
-0000-000000--------
0132-210------------
---0----------------
-0-22---------------
--------------------
---0----0-----------
--------------------
------0-------------
--------------------

Generation = 11, Population = 131.
0-0443201---0-----0-
13---1-0-2-43----2-1
131---03--1--00000-0
---32-13-0-310-2---1
55-44--3--14--2--000
---51-2-113----0----
2-3-4-1-0-01--------
0-1--0---0--0---0---
3-2--------2-0-0-0--
22--1----023-1--0---
---5-00000--0--0----
01---0-1---10-0-----
1243132--000--------
0----000------------
0---30--------------
-0--0---0-----------
--0-0--0-0----------
---0--0-0-----------
-----0-0------------
------0-------------

Generation = 12, Population = 113.
101--4-12---10------
2-33-2--2-35--12-312
-42-4--420-00--1----
-------4-------3----
66-55434-1-----001--
-0--2-31--45----0000
3-44522-1--2---00---
---0-------1--------
-13022-----301----0-
-3----10----1200----
--1-3--1---01-------
-------2------------
23-----001----0-----
--0001110000--------
1--2---00-----------
---0----------------
---010----0---------
--------------------
---00---------------
--------------------

Generation = 13, Population = 160.
----45-2-00-21-0-000
3-440320-24-3-2--4-3
-5-3--0-311-10--0000
0-03-1-----31-0--0--
7--66-45---4--2-1--0
21-5--4---5-2--011-1
-0556--0-1--3-01--00
001-1-1-2-1--0-00-0-
3--1-3-0--0-1--0-0-0
2431--2-0--323-10-0-
-----0--0-01--00----
010-0-0--0-10-0-----
34-313-11--0-0-0----
--11-----1-10-0-----
-0---0----00--------
0-0--0-00-0---------
--0--10--0-0--------
-----0----0---------
--0110--------------
---00---------------

Generation = 14, Population = 186.
1-1---23-----20-----
-355143-235---------
1----41442-021011---
13142-1400---01301--
---774-64--512302101
--4-2151---5320-220-
3166-22-1-0240120---
-1--20---0210-011010
-1322---0013210-----
----11-0102-340210--
---5--0110121-----0-
-2101---0-021010----
----2422210-----0---
002----1--0210------
--0231000-----0-----
-0100-011010--------
0010121-----0-------
---0----------------
-0122-0---0---------
--------------------

Generation = 15, Population = 164.
-02-4--4-00-2310----
346--54--46-3--21---
25--4--5-311-212----
---5------0-11-----1
764----7--1-2--1--12
2-5---6-1--6--1-33--
4277-3-0-1---1-310-0
--10----2---1-122--1
3---33-----4-210--00
-431-22---3-451--1--
-1-63-12-1-320--0--0
03-1---2--132--1--0-
3------33-10--0--0--
1-----1-0----1--0---
10134-1-----0--0----
----1-122--1--0-----
112-2---000--0------
0-0-00----0-0-------
01-33--0-0-0--------
-0000-0---0---------

Generation = 16, Population = 61.
--------------------
---516502575422324--
-----------2-------0
-----------3-------2
---------1253-----2-
--------------------
------2---02-------1
--------------------
---24---0---------1-
--------------------
--1740--------------
---2----------------
---3----------------
--2101211102--------
--------------------
--------------------
------1-------------
--1011000010--------
----4---------------
---1----------------

Generation = 17, Population = 128.
---445242001231000--
--66-------6-----513
---3441543---2121001
---------0---------3
--------42-642---1--
------6--1--3-----01
-----3-0-1134-----0-
---02-1-2-21------11
--3353-0-0-------0-0
--3--2--1---------0-
-128-11-------------
-----0--------------
-----4233110--------
-032-------31-------
--1341100000--------
------1-------------
--202-2-0000--------
-02-2-1----10-------
--135-000000--------
--0-----------------

Generation = 18, Population = 106.
-----------2-------0
-4771------7----262-
----------1223---112
---521140-031-130--4
------4753-7533-2---
-----------6-------2
---7----1-24-1---0-1
--------------------
-1-46-1----4----0--1
---1----------------
0239-2221---------0-
-3121-020013--------
-4432---------------
114-------0421------
---4--2-------------
--------------------
--------1-----------
013-------1210------
--2-----------------
-01-0-000000--------

Generation = 19, Population = 168.
-0244-----032---00--
35--26-------2-337-3
-52--41543--34-21-2-
--16--25-0--2------5
---77--864286--131--
---5--61-1----1-3303
--7-6--0--3---1-1--2
-1--2-1-2-2--0--20--
3---7--0--1-2--0-01-
2----2-01--3----1-00
134+4333--13-----0-0
-4---0-31--42-----0-
-5-4-42331--00------
22-20-2--11--20-----
10--41-0--0000------
---0--1-2-----------
112----0-00000------
1--0----002--10-----
01-35-0000--00------
01----1----10-------

Generation = 20, Population = 126.
---------01-3-----00
467----0257743----2-
------26--12-----1-2
-------6---------1--
---88449-----3-24---
---621721256322044--
---77321--44--2--0-3
---0-------1-------1
4--48--10024--1-----
--3113212034--------
-4-----41124-------1
-------4------------
---52-344---------0-
-3----31----2310----
--14-2--------------
--------------------
--30------1---------
-1-1--10----1210----
1---6---1-----------
--11002-0002--------

Generation = 21, Population = 184.
102----4---34----0-1
5-87-----6-8542---33
252--437-----4--122-
---6212-0-03-1-3-205
--4-955+-428-43--1--
--57------67-3315-03
--78843----5--3--1-4
0-1-201-202-1----012
-1-5----113522-0---1
2-422------54-1----0
1--+43-5223-2-----0-
-4-21---1014------00
-5463---51--0000-0-0
2---0------43--10-0-
--25---0----0000----
-----0----1---------
--4-2-20-0-00000----
--32-121--222--10---
--237---2-000000----
012-1-3----30-------

Generation = 22, Population = 181.
------2-201---1-0-02
--98265-2---653337--
---3--48-31-----2332
13173-3--0----1-0316
-65--66+65-9-5-2-22-
-16-2--2---8----6-1-
428995-11146--4--2--
-12--1---1--2-122--3
4--68311-246-31-00--
345----1--3-55-----1
2--+-4-633--300--011
-5132---2-252011----
---744-4---0----0--1
---211-11115431210--
1036-22-0-0-------0-
---0----------------
-150--------1-------
-14--23-----321210--
1-34----------------
1--12--00-----00----

Generation = 23, Population = 214.
--244-3---234-201013
-6+9--6036-87-4---3-
252-4-594-2234--3-4-
242841-6---3---3----
-76-977+---+--3---3-
-27731--1---333---23
5---+----2---15-1--4
0--02-----21-02--01-
5137-4----57---0-11-
4-622----045-61-1--2
344+4---443-4---01--
-6---0-430363122-00-
-5-8---5511-0--01-0-
23-3223-2-26----21-0
2--74-30101-00000--0
0-1-101-2-1-0-----0-
1-6-222----02-0000--
--522341---2-----10-
21---0002---00--00--
21--303110---0110---

Generation = 24, Population = 138.
---55-4-2-34------24
----267147-9855-----
--3-54---33-45----52
-------------1------
-87-+-----2+--4--24-
--8---------444164--
6-89-------6-26---05
--------------------
6-48--1---682-1-0---
--7---------572221--
-55+------4-50-----1
-------------------0
---9-----22-1-----1-
---43-----3743123201
----5-4---20-------1
--2021223021--------
2--03-3-1-----1---0-
----3-----2332121210
---471------1-------
--214142210---------

Generation = 25, Population = 184.
--26-554304--32--035
--+-378-5---9663----
-5-----9--42-6---363
-4---1---0-3-2---3-6
79---7---53+-55---52
2---3-----6855----23
---++-----4-4---1-16
------1---2-20--2-13
---984-1-27--3201---
4--2--2-----683-3202
366+4----4-----00112
-61------0---1-----1
--4+----53-02-001-21
--4--23---485-----1-
--37-25-1-31-00000-2
0031----4-3-0-0---00
-1--42402---2-2-0-1-
1--2--4-003-4-2---21
-------020--2-000000
-13252----130-------

Generation = 26, Population = 176.
-0-75-6-4-54----11-6
--+948--6---+-743---
26--5-----5-4--23---
--2-423601------04--
--7--87-6-4+6662---3
3---4-----796---6434
6-8+-53--2-6-2-32-27
--------------------
6-4--5---3-8243-2---
5---2-----4579--431-
-77+543-454-5--11223
--232-----36-----00-
--5+44356-2--01-2---
-3-43--1----------21
2-4-----2-4--11--1-3
114-------4110------
22-05-5-3--0-------0
--5---5-114-------3-
213-71-13-0-------1-
22---3422-2--0110000

Generation = 27, Population = 183.
1-2--5--5-65--2--2--
56++-9-177--+-854--3
373--459----56--4---
2-3--34-1203-213-516
7988+--+75-+7--34--4
42---1--1----541--45
7-9++6411-474--4-2--
---0--1-----2-22--13
7--9--1-1-7-354-3-1-
6---332-20-6----54--
-88+--4-5-5-6-022--4
--3-30-4--47-1220---
-------67-3-212----1
-------22-------3-3-
3-5-5-----5---200-04
22--2-2--0-2-----0--
---16-6-4-11-0------
-16---612--------24-
-2--8---40-0-0000---
-------3--3301----11

Generation = 28, Population = 199.
203-566-6076-33---36
67-+--8-88--+6----3-
484-556-4-5---125-6-
---------3-------6--
8+9-+8-+--4-86645-5-
5-8-42-2--7-66-2--5-
82++-75---5---6---2-
-------------0-----4
814+----23-8---0412-
7-724-3-31--79--65-2
-99+5456656--0-33-2-
--4341053058---3-0--
--5-4437--4032------
2-4-3-3--1--53--4-41
40--62502----13--1-5
-3----32---31000---0
2--2---0502---2---1-
1-7--3--3-4---22-351
23-4-101-1012---1--0
-2--5-4---44---10022

Generation = 29, Population = 196.
-1476----1-74-40-2-7
78--49--9-7-+-8547--
-9536---5--25-2-6373
------46--0-22--0-1-
-------+7-5--7-56264
---7-37312-----3-4-5
--+++-6--26742---23-
-----11-21212--2201-
--5---11------415231
8-8--34142--8-327---
-+---5-7-----1------
--54----41----240---
35-+55---3-14-202021
335----2-----4-2-25-
---7---13--102----0-
24412--340-4-1-100-1
3---62--6---2--0--20
-1-234-14---42-3146-
--3-8-1242-23000201-
-33--35-------121---

Generation = 30, Population = 218.
----------78----13--
89++5+81+8----9658--
------6-635366327484
-438435-1313-------6
---8-87+-56+-8--737-
---844842-796-446--6
-2+++---1378536--3--
---0-2223232----3-2-
816+-52-2-78-5---342
-4924-5--346-9-3--12
--9+56586-----0-----
066-----5-583--5--01
-----637-4-252--3132
-4643233-1--55134-6-
--58--52--5--33-011-
---2--3--1-5-2---1-2
42627-60----302-00--
--73--6-5---5-24257-
-3449--353-3411--1-0
24-2-4--21-40--3--2-

Generation = 31, Population = 176.
214766646-894-4---3-
9-----9-+-7-+--7-9-3
4----5-97-64--4385--
25-9-466---4--13--17
-+---9-----+8-----84
-2-95595--8------4--
83---7-124--6---2--7
0-2-2-3--3-3--22--3-
927+8-313-89-641-4--
--------445--+3-7---
3+++6-6-----6--3----
1---4--56169--------
3--+--4-754----0----
3575-3-4-2----2-5---
---9--6-30---4-0-2--
244--1-34-4-1-0-0-0-
5-7-8-71-0---1-0-1-0
1184347-6-----3-3-8-
--5-+--4-------0-2--
3-335-5---------1---

Generation = 32, Population = 62.
------7-------------
--++5++-----+6985+3-
---366-------6------
-----5-------2------
--9---7-----9865----
---+----------------
---++8-------36-----
--3032423434--------
--8-------------5---
--------------------
--------------------
--645106727+--------
---+----------------
---6----------------
--5+62--------------
--------------------
---29---------------
--------------------
------1-------------
--------------------

Generation = 33, Population = 119.
--476-84----4340133-
-9++6+-1---9+7----43
----77---------3858-
--39-6---------3----
-+-----+---++9-67---
---+-59-----6--4----
---++--124786474----
-1-143-----5202-3---
-29-85313389---1-4--
--9-------------7---
--++66686564--------
-675-------+3-------
-----6477542--------
-----3--------------
-06+-36-------------
--4--1--------------
--73+2--------------
---43-7-------------
-----1-4------------
------5-------------

Generation = 34, Population = 118.
---8-69-6----4------
9+++--+2+-7++----+54
-9-3-869---4664-----
--4+4766---4221-061-
8-------7-6+++-783--
-28+56+52289-6------
-3++-8-2---9-58-----
023-------3631------
9--+-6-------6----4-
--------------------
--++------------3---
178-------7+41------
-55+5---------------
-5763-342248--------
417+-472------------
---2----------------
-2-4+---------------
--------------------
---4----5-----------
--------------------

Generation = 35, Population = 156.
21-9-7-47189--4--337
++-+6++3--8+-79-5+-5
-+--7--+---5-7-38--4
2-5+-87----5---3-727
-------+85--++689---
--9+-7-63-9+6--464--
-4--+963-47-6694----
-3-1---2-447-2----3-
+-----3---89-74--4-2
8-9--3-------+--7-1-
3--+6-----6461-3-2--
28955----28--22-0---
-6-+-64775--52------
-6---3-5---95-------
528+658--051--------
2----133------------
5---+2--------------
-1--3---6-----------
--5-+--4-3----------
---3----2-----------

Generation = 36, Population = 122.
---+689---9-4-50----
-+--7+-4---+---8--5-
4+-3886+7----84--5--
-56+49861316-----8--
8-------96-+-----384
--++58+7----7645755-
85-+++-42-8--7---33-
-4---343----3-22----
+-9+---------851----
--------------------
--+----------20-----
-9----06----4335----
--5+5--8--------3---
-------6------------
-3-----231----------
--4222444145--------
6--4---16-----------
---4----------------
---4+11---0---------
--------------------

Generation = 37, Population = 158.
-14+79+--1-9--6-1-3-
-+++8+-5-----7995--5
5+5---7---6-695-86--
2--+5+97-4--221-0--7
-------+--6+-+68-495
--++69--329-87----6-
9-+-++-53--9689----7
05--------47----303-
-2++8631-----96-5---
8--2-----------3----
---+--68------------
2-95511-7--+5446----
--6-66--7---522--1--
-6763-3--2------5---
5--+65-34--1--------
2-53-----2-61-------
-2---2----21--------
1-8--4716-4---------
--5---24-3-3--------
---3545---4---------

Generation = 38, Population = 177.
2-5+8++-7---4-702---
-+-+9---+88+----6---
-+-3-88+------63978-
3--+--+---1---2318-8
8-9----+-6-+-+7995+-
52--7-+7-----845--76
+5++---6--8-79+4233-
--31--4-345----2--4-
+--+---23-893+716-4-
-----3-------+------
-------9---4620-----
---662-6828+655700--
3---7-488----3----3-
-7874---2-495523----
6-8+76845152----0---
346----4--4722------
6-74+3-16-----------
-1943-827153--------
236-+13-5---4-------
---4----------------

Generation = 39, Population = 179.
-16+9-+-8-9---8--3--
-+++-+-----+---9--5-
-+--899+-3-5-9-4-89-
4--+5-+7------3--9--
-+--+-7+--6-----+6-5
6-+---+8329+-9-67587
-6+---67--9-8++---4-
---243----6---2-3--4
-2-+86-3-3---+-27-52
8--24-5-4-5-8-337-1-
---+6-6+-5--7---32--
2-9773179--+7-6--1--
--6+-6599---5-2-3--2
38985--6-2-+-6-4--6-
7-9+8--56--30-3--2--
4-73----4--8-30-0---
7-85+472----31------
1--54--3---4--------
34-----46-0--1------
34---45-2---0-------

Generation = 40, Population = 163.
2-7+++-------4--2---
+++--++5+8-++7-+6+65
-+-3-++----6--65---4
-56+6++81416-------8
8---+-8+--7--+7--7+6
--++79+----+8+47869-
-7--+------99+----57
----5-----7732324045
---+--3-3-8-----8---
--93536-----9+44852-
---+767------2------
----84----8+8-770201
--7+--6----26330----
-----------+--------
-3+--68---541-4-----
--8422445249--------
----+------14---0---
--------------------
4-64+1--------1-----
--3-55633144--------

Generation = 41, Population = 163.
31-----481-9-58-3-37
-+-+-++--9----9-7---
---48+++------7--8--
---+7+-9--2-22-3-9--
---8--9---8+------+-
6-+---------9-5--7+7
+-----6----+-++--36-
-5--634-34-843--5-5-
---+8-4---9----2-4-2
-4+-64714-56++--9-32
-------+--64730----4
--97--1--29+---8---2
-68+---9---37-4--132
-8-8-3------56-4----
74------6---2--0----
----335---5+2-0-0---
--8-+-7260--51-0-1--
1-95-4-----45-3-3---
----+--46303-1-0----
3444-6-----50-1-----

Generation = 42, Population = 186.
4-7+-+-5-----6--4-48
-+-+9--5-+8+----8-65
-+559-+-736-6-8--99-
--6+8--+1436333--+--
8--9-----6-+++79-7+-
7---------9+-+678--8
+-+-+-77349+---4--7-
--3---5-457-------6-
---+9-----+9--7----3
85+3--825-67+----543
-+-+767+--7-841-3---
----84-793++857-02--
3-9+76--95---3-032--
--99--362---67255261
8-++8-85-15----1----
4484------6-33------
7295+----1-162----2-
---6----------------
-4-4-135---4--------
4--55-6331--11------

Generation = 43, Population = 212.
-18-+--681994-805---
-+-+---6+-9+-79+9+7-
5-6-+-----7-7995----
4----+-+2-47-44-1-2-
9+-+---+-7-++---+-+-
-2++7-+832-+9-7-9-+-
+-+-----45--9+-5-38-
054--363-688--32-07-
+2+-+6-3--+--+-2-454
96-46--36-78-----6--
-++-878+6---95--4224
2997951-+4+-9--81-0-
---+8--9+--37----3-2
-8++5--7-24+78--63-2
94+-9---62-4---2-215
55-53-54-27+--01--0-
-3+-+4--6-227-2--1-0
1----483-1--52----8-
----+24--30--1------
--4-66-4-24-221-----

Generation = 44, Population = 200.
4-9+-++-9-++56-1--4-
-+--9-+--++-----+-85
6+-5-----3--8---99--
--6+----34-----32-38
--9+-9---88+---9---6
7-++8-+943--++-7+7-8
+---++-7-6-+-+-62-97
1652----4-99-343-18-
+--+--4----93-73-565
-7-574-4---9---4--4-
3+--989+7----61--335
3++8-6--+-++--79--12
3-9+9----54-8--03433
--++6338----892-746-
-----68573---4-30-2-
-6-64365--8+-3--0112
7-+5--72---3-23-0---
--9-4594725---------
4-64---564-44-----1-
-4----6-----3323----

Generation = 45, Population = 209.
-1++++---1---7---35-
++-+-++6-----7--++-6
7-66--+----6-9--++9-
4--+8+-+45-73-4--+4-
9++++--+99-+-+7-+7--
8--+--++-4-++--8+8+-
---+-+78-79+9-+7----
2----36--6++4-545-95
+2------3--+4+-4---6
98--8--5--7+-+4596-3
-+-+---+-57-97-344--
4++--7--+4-+-----223
46+--669-6-39-4-45--
38-+744---4+-+3-857-
-4+-97---4-4--441---
--8--4-6--9-----1-23
-3--+483-124--4-1-20
-1--5-+-8364523-3-8-
-4-5-24-7-05--10-2-0
---5-6--32-----41-2-

Generation = 46, Population = 199.
---+---69-+-588---6-
----9-+7++-++-9+-+--
-+77-+++73778+-5----
--6+9++-5--84-532+-8
+------+++---+-9-8+-
9------+4-9+--7-+9+8
--++-----8+-+--823-7
3--26-----+-53--6-+-
+-+-+64---++5---85--
-9+--486-----+--+--4
3-+--89+7---+-1-55--
----98-7+5++957913-4
5----77++744+35--633
-9-+8----25+8+459682
---+-8-57--52---2--5
-6964-6752++--------
74-5-59-6-----5---3-
1-9-6--4-4----444591
45-6+---------------
-446-7-4-3-5----20--

Generation = 47, Population = 163.
--+------1-+-------8
-+++-+------+-------
7+8----+-4---+-----4
4--+-+---5----6---4-
+++++9---+-----+-9-6
+2++--+----+------+-
-7+----8-9+++--9---8
465---6----+645-----
+2++-7---3---+-496-6
9++5-5----7++--5-64-
-+++-9+---7-+-236-3-
--+8+9-8-6++-6--2425
---+9--++-----604744
----944-2-6--+5-+793
------8--456--4-3--6
----5--8------0-1-23
---6-6--7124-26-1-4-
----7---8-6--2----+2
-----------5--10--10
----6-------3--4312-

Generation = 48, Population = 119.
--+--+--9---------6-
---+--+7------------
-+-7--+--57---------
-56+9+++5-4--------8
+++-----++8+--------
-----------+-------8
+8+---7--+------2---
--6---------756461--
+----8--3---5+7---6-
---6----------------
---+9++-----+734----
----+-19+7++9-7935--
----+7-----4-3-----5
-------8327-8+65+8+4
------9--5672-----2-
--------------------
--+---9---35----2--0
-------49474534445+-
--------7-----2---2-
---6-7-------3------

Generation = 49, Population = 145.
-1--+----1-------3-8
-+-+9--8-++-------8-
7+8----+-6-7-------4
-67+--+-----------4-
++--+99---9-+-------
------+-4--++---+-+-
+--+-+-84-+++++-3--8
--72-36-46-+-67-72--
-2+++-43-3-+-+--9--6
9-+7--8-6------5--4-
--+-+---757---4--5--
-----------+---+-625
---+-8----45-46----6
----94-9-3---+----+-
-----8----7---443-3-
--9------2--3---1-23
-4-6-6--7----26-3---
--9----5+-85--5-5---
---6-2--8-05413-2-30
--4---6-3---3-----2-

Generation = 50, Population = 184.
42+-++-692------5-6-
--++-++9-++--------6
8--7+--+-77-8-----9-
478+--+--5484----+--
+---+-++++-+++--+---
-2-+89++549-+-78+---
-8-+-+-95++-++------
4--36-----+-77--83+-
-3--+854-4-+-+--+---
-++-8596747+-+------
3+++-+++--8--7-46635
--+8+9--+7++967-----
--+-+97+--5---7--747
----+5----7+8+65+8+-
--+--995-5-72-5-----
-----------+-------4
7-----9-8-35-3---140
---6--+6+----3---5+2
--6--------65---3--1
-4------434-4-2-313-

*** Life<FredkinCell> 15x15 ***

Generation = 0, Population = 10.
---------------
0000000000-----
---------------
---------------
---------------
---------------
---------------
---------------
---------------
---------------
---------------
---------------
---------------
---------------
---------------

Generation = 1, Population = 23.
0000000000-----
1--------10----
0000000000-----
---------------
---------------
---------------
---------------
---------------
---------------
---------------
---------------
---------------
---------------
---------------
---------------

Generation = 2, Population = 15.
---------------
-0------0210---
---------------
0000000000-----
---------------
---------------
---------------
---------------
---------------
---------------
---------------
---------------
---------------
---------------
---------------

Generation = 3, Population = 33.
-0------0000---
1-0----01--10--
0-000000--00---
1--------10----
0000000000-----
---------------
---------------
---------------
---------------
---------------
---------------
---------------
---------------
---------------
---------------

Generation = 4, Population = 19.
---------------
201-00----1210-
---------------
---------------
---------------
0000000000-----
---------------
---------------
---------------
---------------
---------------
---------------
---------------
---------------
---------------

Generation = 5, Population = 50.
000-00----0000-
3-2-110--22--10
000-00----0000-
---------------
0000000000-----
1--------10----
0000000000-----
---------------
---------------
---------------
---------------
---------------
---------------
---------------
---------------

Generation = 6, Population = 34.
---------------
----2-101332121
---------------
---0--00010000-
---------------
-0------0210---
---------------
0000000000-----
---------------
---------------
---------------
---------------
---------------
---------------
---------------

Generation = 7, Population = 56.
----0-000000000
---0--2-------2
---00---------0
--0-001------10
-0-0--00----00-
1-0----01--10--
0-000000--00---
1--------10----
0000000000-----
---------------
---------------
---------------
---------------
---------------
---------------

Generation = 8, Population = 30.
---------------
--21213-13321--
---------------
---------------
---------------
2010000122-----
---------------
---------------
---------------
0000000000-----
---------------
---------------
---------------
---------------
---------------

Generation = 9, Population = 72.
--00000-00000--
-03---4-2---22-
--00000-00000--
---------------
0000000000-----
3--------31----
0000000000-----
---------------
0000000000-----
1--------10----
0000000000-----
---------------
---------------
---------------
---------------

Generation = 10, Population = 36.
---------------
3141-1---3-2332
---------------
10-----0--000--
---------------
-0------2421---
---------------
---------------
---------------
-0------0210---
---------------
0000000000-----
---------------
---------------
---------------

*** Life<FredkinCell> 17x17 ***

Generation = 0, Population = 2.
-----------------
-----------------
-----------------
-----------------
-----------------
-----------------
-----------------
-----------------
-------0-0-------
-----------------
-----------------
-----------------
-----------------
-----------------
-----------------
-----------------
-----------------

Generation = 15, Population = 54.
0-0-----------0-0
---0---------0---
0---0-------0---0
-0---0-----0---0-
--0---0---0---0--
---0---0-0---0---
----0-------0----
-----0-----0-----
------0---0------
-----0-----0-----
----0-------0----
---0---0-0---0---
--0---0---0---0--
-0---0-----0---0-
0---0-------0---0
---0---------0---
0-0-----------0-0

Generation = 30, Population = 8.
-----------------
-----------------
-----------------
-----------------
-----------------
-----------------
-------0-0-------
-----------------
-----0-0-0-0-----
-----------------
-------0-0-------
-----------------
-----------------
-----------------
-----------------
-----------------
-----------------

Generation = 45, Population = 14.
-----------------
-----------------
-----------------
-----------------
-----------------
-------0-0-------
------0---0------
-----0-----0-----
----0-------0----
-----0-----0-----
------0---0------
-------0-0-------
-----------------
-----------------
-----------------
-----------------
-----------------

*** Life<FredkinCell> 15x15 ***

Generation = 0, Population = 8.
---------------
---------0-----
---------------
------000------
---------------
-----00--------
---------------
-------0-------
---------------
---------0-----
---------------
---------------
---------------
---------------
---------------

Generation = 5, Population = 80.
------0--0---0-
-----0-01-0-0-0
--000-00-00000-
-01-101-201-10-
-0-00--0-0-00--
0121----0110---
-000--000000---
--0-002-100-0--
---0---00--0-0-
-----0-0----0-0
------00-----0-
------0-0------
-------0-0-----
--------0-0----
---------0-----

Generation = 10, Population = 32.
---------------
----1-21-------
---------------
0---2---511---0
---------------
3-53--4-1---1-2
---------------
0-------------0
---------------
---1--0-1------
---------------
-0--0---210--0-
---------------
---01-21---0---
---------------

Generation = 15, Population = 112.
----0--0--000-0
---1-25-213-3--
--0-00000--0000
-0-2323----23-0
0-0000--0-0--00
-3856--3-----1-
-000--0---0-00-
1-2--0---2--1-1
-00-0---0--000-
-0-----0--2101-
00--0-0--0000-0
0-21----4331-0-
0000--00000-0--
--2-314-01-0---
0-000--0--0----

Generation = 20, Population = 0.
---------------
---------------
---------------
---------------
---------------
---------------
---------------
---------------
---------------
---------------
---------------
---------------
---------------
---------------
---------------

Generation = 25, Population = 0.
---------------
---------------
---------------
---------------
---------------
---------------
---------------
---------------
---------------
---------------
---------------
---------------
---------------
---------------
---------------

Generation = 30, Population = 0.
---------------
---------------
---------------
---------------
---------------
---------------
---------------
---------------
---------------
---------------
---------------
---------------
---------------
---------------
---------------

Generation = 35, Population = 0.
---------------
---------------
---------------
---------------
---------------
---------------
---------------
---------------
---------------
---------------
---------------
---------------
---------------
---------------
---------------

Generation = 40, Population = 0.
---------------
---------------
---------------
---------------
---------------
---------------
---------------
---------------
---------------
---------------
---------------
---------------
---------------
---------------
---------------

Generation = 45, Population = 0.
---------------
---------------
---------------
---------------
---------------
---------------
---------------
---------------
---------------
---------------
---------------
---------------
---------------
---------------
---------------

Generation = 50, Population = 0.
---------------
---------------
---------------
---------------
---------------
---------------
---------------
---------------
---------------
---------------
---------------
---------------
---------------
---------------
---------------

*** Life<FredkinCell> 5x5 ***

Generation = 0, Population = 6.
-----
--0--
-0-00
--00-
-----

Generation = 5, Population = 13.
--01-
1-1-4
2--33
3-3-1
--04-

Generation = 10, Population = 16.
02-4-
6-6-9
-2066
8-8-6
04-7-

Generation = 15, Population = 13.
-50--
+-+-+
65--9
+-+-+
-70--

Generation = 20, Population = 16.
-8-80
+-+-+
980+-
+-+-+
-+-+0

Generation = 25, Population = 13.
--0+-
+-+-+
+--++
+-+-+
--0+-

Generation = 30, Population = 16.
0+-+-
+-+-+
-+0++
+-+-+
0+-+-

Generation = 35, Population = 13.
-+0--
+-+-+
++--+
+-+-+
-+0--

Generation = 40, Population = 16.
-+-+0
+-+-+
++0+-
+-+-+
-+-+0

Generation = 45, Population = 13.
--0+-
+-+-+
+--++
+-+-+
--0+-

Generation = 50, Population = 16.
0+-+-
+-+-+
-+0++
+-+-+
0+-+-

*** Life<FredkinCell> 40x40 ***

Generation = 0, Population = 20.
----------------------------------------
-0--------------------------------------
------00--------------------------------
----0-----------------------------------
----------------------------------------
----------------------------------------
----------------------------------------
------0---------------------------------
----------------------------------------
----------------------------------------
----------------------------------------
-----------0----------------------------
----------------------------------------
----------------------------------------
----------------------------------------
----------------------------------------
----------------------------------------
---0------------------------------------
----------------------------------------
----------------------------------------
----0-----------------------------------
----------------------------------------
----------------------------------------
-----------------------0----------------
----------------------------------------
----------------------------------------
----------------------------------------
--00------------------------------------
-----0----------------------------------
----------------------------------------
----------------------------------------
-----0--0-------------------------------
------0---------------------------------
--------0-------------------------------
----------------------------------------
----------------------------------------
-----0-0--------------------------------
--0-------------------------------------
----------------------------------------
---0------------------------------------

Generation = 25, Population = 495.
---2-3---1-3---------0---0--------------
2-0-2-2-2---1-0-0---0-0-0-0---00--------
-2-19----67-75---44244---2-121210-------
4--4--7-415--16-736-4050--112000--------
---1-38--14-4----02100520--10-----------
4-3-106-3-----4-2-2---12----------------
-0-0-3--7----1-120------------00--------
----3--0-2----2111-----------0110-------
-0-1---3---1-0-000-0----------00--------
2---2--2203---0-0---1-21----------------
-322-5--33--20---0--00210----------0----
1--614935--62-11--03-000----------0-0---
46234---4----1-10---20-------------0----
0--3-5433----101----0-------------------
0211-2-400---0--0-----00---------------0
-3--1-2341--2--0-0---0110-------------0-
---1-2-210-1---0---0--00---0-----------0
-2--3-2-3---2----00-0-----0-0-----------
403-22---2-2-011--0---------------------
3-2--43--2--100--0-100----0-------------
2--3-2-12--344--003-0-0------0----------
36-6-41----240-0--2--1------0-----------
12-1141--331--10-----1--0------0-0------
-35--335----31110---1--0-0----0---0-----
02-3---1---3--11---1---0-------0-0------
0-2-52--3---------1-0-01-0--------------
-3--3--41--1-------00---0-00------------
---86783-6--3--0-3-24--1-03100----------
----45--475-1-2----4-3--1-000-0---------
--3------511-4-0---223-2-----0----------
-4----62---3120--420---1-----0--0------0
3---68562-5--233----5-2-2---0--0-0----0-
---2--00---0---0---------------0-------0
1-7---------32201-3-0-3-3-----00-0------
-3-4---------11--------2--------0-------
------------0----12-2--2-----0-0--------
-3---6-------0--2-031-1-2-0-0---0-------
----------1------1-2-2-1-1-2-0-0--------
---2-4---4-----0---000----01---0--------
----4-2-1---3-2-1-4---2---0-0-0-0-------

Generation = 50, Population = 623.
----84--+24---------04-++20------------4
-3++46766--56-----232-3--22-2----1---22-
---6++-8+++9-------68-6+-9+6+-------47-4
+-7++8+---+--4+-96--9-+-+-73--64---23--1
--++--+-+--5-------3--9-+-7-6-----5---33
4-7+9-8-+--74-6-4-56--27316-6--------3-1
----57-+-4-----------5-+--4---------2---
-5--746-579+86---985+-8--9+35-------36-4
-----5-4--4---------4-------------------
4-5+--6-63-+63---361-0787---2-----4-3-13
---65-699---5-----4--65-56-----------232
69--+-+-+-9---4-2--64---8-6-110-132-3-6-
--599+-+6-37-------44-3---22-------123--
--+-8----38-75---03---4-53511-----2121--
-----6---1-----------13--2-----------1-3
-9--635-98----------17-2--25-0-----3-5-0
----34778-4---------1-00--3---------1-01
--8----+7984-6---3-324-3-2-3---0----11-2
---05-9---3---------0--22-1-2-------1---
47--4---68-22-----4--34--2---2---3---10-
---9--868+-+6-----43-7122123--2----22534
7-++--74956---5-23--042-3-----0-2--2--31
-----8-8-73---------22-2-4--3--------231
-++9+---9++25-----335-1-264443---3334---
----5-----------------------------------
-98+8-+8--7-6-----4-3-5-51-89-0--1322-2-
--7--8+-646---------355--4-1---------3--
9-----+59-9-+68-874-7-7---5-9-71--536-41
---++--7+-+9+-----383-+-++-8-3-----5---0
-----+--+84-3-----6-563----4352---5-0-30
----6-+-6-8---------35--4442---------22-
---4-+-9-+8+-4---7-585594--2-5-----54-57
----5-----2---------1--0--2-5-------0---
-2-+6+-6-6-5---------48965---1---2-7361-
----5-+-8-+---------1-19-3-6--------023-
--8-4++--1-------7-------2-31-1---3-431-
--++6-69---6-------7-63-4---30----35--32
+54-4--44-----7-5--8--63-23-322--56-4-1-
----377--6-----------4-4--03--------12--
--7--5-8--8+63---3895-6-3---5432--2-32-2

*** Life<FredkinCell> 5x5 ***

Generation = 0, Population = 25.
00000
00000
00000
00000
00000

Generation = 10, Population = 12.
-2-2-
2-0-2
-0-0-
2-0-2
-2-2-

Generation = 20, Population = 12.
-2-2-
2-0-2
-0-0-
2-0-2
-2-2-

Generation = 30, Population = 12.
-2-2-
2-0-2
-0-0-
2-0-2
-2-2-

Generation = 40, Population = 12.
-2-2-
2-0-2
-0-0-
2-0-2
-2-2-

Generation = 50, Population = 12.
-2-2-
2-0-2
-0-0-
2-0-2
-2-2-

*** Life<FredkinCell> 10x10 ***

Generation = 0, Population = 61.
0000000000
0000000000
0000000000
0000000000
0000000000
0000000000
0---------
----------
----------
----------

Generation = 25, Population = 44.
8-977---+-
+5---5----
9+------9+
-4------89
--5----7+-
--+--9--89
-+--5--3-+
++7-+-6-4-
--995-7+65
4-7---283-

Generation = 50, Population = 46.
+9--+--+--
+696--+8++
--+-8+-8--
--+-+8-+--
-+++---+-+
++-+--+-++
8-++9--+-+
+-+9--9+-+
+-+----+--
----------
