*** Life<ConwayCell> 14x17 ***

Generation = 0, Population = 18.
.....*......*..*.
.................
...........*.....
......*..........
......*........*.
...............*.
.*.........*.....
.*..........*....
..*............*.
.........*.......
.....*...........
.................
.*....*..........
.................

Generation = 3, Population = 0.
.................
.................
.................
.................
.................
.................
.................
.................
.................
.................
.................
.................
.................
.................

Generation = 6, Population = 0.
.................
.................
.................
.................
.................
.................
.................
.................
.................
.................
.................
.................
.................
.................

Generation = 9, Population = 0.
.................
.................
.................
.................
.................
.................
.................
.................
.................
.................
.................
.................
.................
.................

Generation = 12, Population = 0.
.................
.................
.................
.................
.................
.................
.................
.................
.................
.................
.................
.................
.................
.................

Generation = 15, Population = 0.
.................
.................
.................
.................
.................
.................
.................
.................
.................
.................
.................
.................
.................
.................

Generation = 18, Population = 0.
.................
.................
.................
.................
.................
.................
.................
.................
.................
.................
.................
.................
.................
.................

Generation = 21, Population = 0.
.................
.................
.................
.................
.................
.................
.................
.................
.................
.................
.................
.................
.................
.................

*** Life<ConwayCell> 16x14 ***

Generation = 0, Population = 22.
...........*.*
.*............
............**
..............
...........*..
........*.....
.......*......
......**......
........*.....
.......**...*.
..*...........
........*.....
..*...........
..............
........*.....
...**..**.....

Generation = 1, Population = 18.
..............
.............*
..............
............*.
..............
..............
......***.....
......***.....
......*.*.....
.......**.....
.......**.....
..............
..............
..............
.......**.....
.......**.....

Generation = 2, Population = 15.
..............
..............
..............
..............
..............
.......*......
......*.*.....
.....*...*....
......*..*....
......*..*....
.......**.....
..............
..............
..............
.......**.....
.......**.....

Generation = 3, Population = 22.
..............
..............
..............
..............
..............
.......*......
......***.....
.....*****....
.....**.***...
......*..*....
.......**.....
..............
..............
..............
.......**.....
.......**.....

Generation = 4, Population = 16.
..............
..............
..............
..............
..............
......***.....
.....*...*....
..........*...
..........*...
.....**...*...
.......**.....
..............
..............
..............
.......**.....
.......**.....

Generation = 5, Population = 22.
..............
..............
..............
..............
.......*......
......***.....
......****....
.........**...
.........***..
......**.*....
......**......
..............
..............
..............
.......**.....
.......**.....

Generation = 6, Population = 19.
..............
..............
..............
..............
......***.....
.........*....
......*...*...
.......*...*..
...........*..
......**.*....
......***.....
..............
..............
..............
.......**.....
.......**.....

Generation = 7, Population = 21.
..............
..............
..............
.......*......
.......**.....
......*.**....
..........*...
..........**..
......***.*...
......*.......
......*.*.....
.......*......
..............
..............
.......**.....
.......**.....

Generation = 8, Population = 26.
..............
..............
..............
.......**.....
......*..*....
........**....
..........**..
.......*..**..
......**.***..
.....**.**....
......*.......
.......*......
..............
..............
.......**.....
.......**.....

Generation = 9, Population = 23.
..............
..............
..............
.......**.....
.........*....
........**....
........*..*..
......***...*.
.....*.....*..
.....*..**....
.....**.*.....
..............
..............
..............
.......**.....
.......**.....

Generation = 10, Population = 27.
..............
..............
..............
........*.....
.......*.*....
........***...
..............
......***..**.
.....*...*....
....**.***....
.....*****....
..............
..............
..............
.......**.....
.......**.....

Generation = 11, Population = 27.
..............
..............
..............
........*.....
.......*..*...
........***...
..........**..
......***.....
....**...**...
....*.....*...
....**...*....
......***.....
..............
..............
.......**.....
.......**.....

Generation = 12, Population = 34.
..............
..............
..............
..............
.......*..*...
........*.....
..........**..
.....****..*..
....*******...
...*......*...
....******....
.....****.....
.......*......
..............
.......**.....
.......**.....

Generation = 13, Population = 27.
..............
..............
..............
..............
..............
.........***..
......*.****..
....*......*..
....*.....**..
...*......*...
....*....*....
....*....*....
.......**.....
.......**.....
.......**.....
.......**.....

Generation = 14, Population = 29.
..............
..............
..............
..............
..........*...
........*..*..
........*...*.
.....*......*.
...**.....**..
...**....***..
...**....**...
.........*....
.......*.*....
......*..*....
......*..*....
.......**.....

Generation = 15, Population = 27.
..............
..............
..............
..............
..............
.........*.*..
...........**.
....*.......*.
...*.*...*..*.
..*..*........
...**...*..*..
.........*....
.........**...
......**.**...
......*..*....
.......**.....

Generation = 16, Population = 24.
..............
..............
..............
..............
..............
..........***.
..........***.
....*.......**
...*.*........
..*..*........
...**.........
........**....
..............
......**......
......*..**...
.......**.....

Generation = 17, Population = 22.
..............
..............
..............
..............
...........*..
..........*.*.
..........*...
....*.......**
...*.*........
..*..*........
...**.........
..............
.......**.....
......**......
......*..*....
.......***....

Generation = 18, Population = 20.
..............
..............
..............
..............
...........*..
..........*...
............**
....*.........
...*.*........
..*..*........
...**.........
..............
......***.....
......*.......
......*..*....
.......***....

Generation = 19, Population = 20.
..............
..............
..............
..............
..............
...........**.
..............
....*.........
...*.*........
..*..*........
...**.........
.......*......
......**......
.....**.*.....
......*..*....
.......***....

Generation = 20, Population = 19.
..............
..............
..............
..............
..............
..............
..............
....*.........
...*.*........
..*..*........
...**.........
......**......
.....*..*.....
.....*..*.....
.....**..*....
.......***....

Generation = 21, Population = 27.
..............
..............
..............
..............
..............
..............
..............
....*.........
...*.*........
..*..*........
...****.......
....****......
.....*..*.....
....**.***....
.....**..*....
......****....

Generation = 22, Population = 19.
..............
..............
..............
..............
..............
..............
..............
....*.........
...*.*........
..*...........
...*...*......
...*...*......
.........*....
....*..*.*....
....*.....*...
.....*****....

Generation = 23, Population = 19.
..............
..............
..............
..............
..............
..............
..............
....*.........
...**.........
..***.........
..**..........
........*.....
..............
........***...
....*.....*...
.....*****....

Generation = 24, Population = 17.
..............
..............
..............
..............
..............
..............
..............
...**.........
..*..*........
..............
..*.*.........
..............
........*.....
.........**...
.....**...*...
.....*****....

*** Life<ConwayCell> 5x27 ***

Generation = 0, Population = 16.
.....**.....**.............
..*.*...*.*..........*.....
*.....*................*...
......*...........*....*...
............*..............

Generation = 2, Population = 4.
......*....................
.....*.*...................
.......*...................
...........................
...........................

Generation = 4, Population = 2.
...........................
......**...................
...........................
...........................
...........................

Generation = 6, Population = 0.
...........................
...........................
...........................
...........................
...........................

Generation = 8, Population = 0.
...........................
...........................
...........................
...........................
...........................

Generation = 10, Population = 0.
...........................
...........................
...........................
...........................
...........................

Generation = 12, Population = 0.
...........................
...........................
...........................
...........................
...........................

Generation = 14, Population = 0.
...........................
...........................
...........................
...........................
...........................

Generation = 16, Population = 0.
...........................
...........................
...........................
...........................
...........................

Generation = 18, Population = 0.
...........................
...........................
...........................
...........................
...........................

Generation = 20, Population = 0.
...........................
...........................
...........................
...........................
...........................

Generation = 22, Population = 0.
...........................
...........................
...........................
...........................
...........................

Generation = 24, Population = 0.
...........................
...........................
...........................
...........................
...........................

*** Life<ConwayCell> 20x17 ***

Generation = 0, Population = 12.
.................
.................
.................
.........*.......
....*............
.................
...........*.....
............*....
....*...........*
........*........
................*
*................
.............*...
.....*...........
.......*.........
.................
.................
.................
.................
.................

Generation = 5, Population = 0.
.................
.................
.................
.................
.................
.................
.................
.................
.................
.................
.................
.................
.................
.................
.................
.................
.................
.................
.................
.................

Generation = 10, Population = 0.
.................
.................
.................
.................
.................
.................
.................
.................
.................
.................
.................
.................
.................
.................
.................
.................
.................
.................
.................
.................

Generation = 15, Population = 0.
.................
.................
.................
.................
.................
.................
.................
.................
.................
.................
.................
.................
.................
.................
.................
.................
.................
.................
.................
.................

*** Life<ConwayCell> 14x22 ***

Generation = 0, Population = 14.
........*..*..........
......................
.........*...*.*......
......................
......................
*....*..*.............
..................*...
......................
....*.......*.........
.................*....
......................
......................
.......*.......*......
......................

Generation = 2, Population = 0.
......................
......................
......................
......................
......................
......................
......................
......................
......................
......................
......................
......................
......................
......................

Generation = 4, Population = 0.
......................
......................
......................
......................
......................
......................
......................
......................
......................
......................
......................
......................
......................
......................

Generation = 6, Population = 0.
......................
......................
......................
......................
......................
......................
......................
......................
......................
......................
......................
......................
......................
......................

Generation = 8, Population = 0.
......................
......................
......................
......................
......................
......................
......................
......................
......................
......................
......................
......................
......................
......................

Generation = 10, Population = 0.
......................
......................
......................
......................
......................
......................
......................
......................
......................
......................
......................
......................
......................
......................

Generation = 12, Population = 0.
......................
......................
......................
......................
......................
......................
......................
......................
......................
......................
......................
......................
......................
......................

Generation = 14, Population = 0.
......................
......................
......................
......................
......................
......................
......................
......................
......................
......................
......................
......................
......................
......................

Generation = 16, Population = 0.
......................
......................
......................
......................
......................
......................
......................
......................
......................
......................
......................
......................
......................
......................

Generation = 18, Population = 0.
......................
......................
......................
......................
......................
......................
......................
......................
......................
......................
......................
......................
......................
......................

*** Life<ConwayCell> 11x16 ***

Generation = 0, Population = 16.
..*.......*...*.
.......*.*......
..*.............
*...........*...
.............*..
.........*......
...........*....
................
...*.*..........
.............*.*
............*...

Generation = 5, Population = 0.
................
................
................
................
................
................
................
................
................
................
................

Generation = 10, Population = 0.
................
................
................
................
................
................
................
................
................
................
................

*** Life<ConwayCell> 7x24 ***

Generation = 0, Population = 22.
......*.*...*...*.......
...*.*.........*....*...
...*.....*.....*........
..*.....*..*......*.....
..................*....*
.......*..........*.....
.*..........*.....*.....

Generation = 2, Population = 10.
........................
....*...................
...**...................
...*..............*.....
.................*.*....
.................*.*....
..................*.....

Generation = 4, Population = 12.
........................
...**...................
..*..*..................
...**.............*.....
.................*.*....
.................*.*....
..................*.....

Generation = 6, Population = 12.
........................
...**...................
..*..*..................
...**.............*.....
.................*.*....
.................*.*....
..................*.....

Generation = 8, Population = 12.
........................
...**...................
..*..*..................
...**.............*.....
.................*.*....
.................*.*....
..................*.....

Generation = 10, Population = 12.
........................
...**...................
..*..*..................
...**.............*.....
.................*.*....
.................*.*....
..................*.....

Generation = 12, Population = 12.
........................
...**...................
..*..*..................
...**.............*.....
.................*.*....
.................*.*....
..................*.....

Generation = 14, Population = 12.
........................
...**...................
..*..*..................
...**.............*.....
.................*.*....
.................*.*....
..................*.....

Generation = 16, Population = 12.
........................
...**...................
..*..*..................
...**.............*.....
.................*.*....
.................*.*....
..................*.....

Generation = 18, Population = 12.
........................
...**...................
..*..*..................
...**.............*.....
.................*.*....
.................*.*....
..................*.....

Generation = 20, Population = 12.
........................
...**...................
..*..*..................
...**.............*.....
.................*.*....
.................*.*....
..................*.....

Generation = 22, Population = 12.
........................
...**...................
..*..*..................
...**.............*.....
.................*.*....
.................*.*....
..................*.....

Generation = 24, Population = 12.
........................
...**...................
..*..*..................
...**.............*.....
.................*.*....
.................*.*....
..................*.....

Generation = 26, Population = 12.
........................
...**...................
..*..*..................
...**.............*.....
.................*.*....
.................*.*....
..................*.....

Generation = 28, Population = 12.
........................
...**...................
..*..*..................
...**.............*.....
.................*.*....
.................*.*....
..................*.....

*** Life<ConwayCell> 16x15 ***

Generation = 0, Population = 16.
...............
.*.............
.........*.....
*..............
..*............
.....*.........
...............
.......*.......
..*.......*....
.....*.........
.*.............
..........*..*.
.............*.
...............
....*........*.
..*............

Generation = 3, Population = 0.
...............
...............
...............
...............
...............
...............
...............
...............
...............
...............
...............
...............
...............
...............
...............
...............

Generation = 6, Population = 0.
...............
...............
...............
...............
...............
...............
...............
...............
...............
...............
...............
...............
...............
...............
...............
...............

Generation = 9, Population = 0.
...............
...............
...............
...............
...............
...............
...............
...............
...............
...............
...............
...............
...............
...............
...............
...............

Generation = 12, Population = 0.
...............
...............
...............
...............
...............
...............
...............
...............
...............
...............
...............
...............
...............
...............
...............
...............

Generation = 15, Population = 0.
...............
...............
...............
...............
...............
...............
...............
...............
...............
...............
...............
...............
...............
...............
...............
...............

Generation = 18, Population = 0.
...............
...............
...............
...............
...............
...............
...............
...............
...............
...............
...............
...............
...............
...............
...............
...............

Generation = 21, Population = 0.
...............
...............
...............
...............
...............
...............
...............
...............
...............
...............
...............
...............
...............
...............
...............
...............

Generation = 24, Population = 0.
...............
...............
...............
...............
...............
...............
...............
...............
...............
...............
...............
...............
...............
...............
...............
...............

*** Life<ConwayCell> 5x30 ***

Generation = 0, Population = 10.
........................*.....
.....................*.......*
..........*............**.....
...*...............*..*.......
.............................*

Generation = 2, Population = 6.
..............................
......................***.....
......................*.......
......................**......
..............................

Generation = 4, Population = 9.
......................**......
......................***.....
.....................*..*.....
......................**......
..............................

Generation = 6, Population = 9.
.......................*......
.....................**.**....
.....................*..*.....
......................**......
..............................

Generation = 8, Population = 10.
.....................**.**....
.....................*........
.....................*...*....
......................***.....
..............................

Generation = 10, Population = 11.
....................***.......
....................*...**....
....................**........
..............................
......................***.....

Generation = 12, Population = 10.
....................**........
...................*..*.......
....................*..*......
....................**.*......
.......................*......

Generation = 14, Population = 15.
....................**........
...................*..*.......
...................*...**.....
...................***.**.....
.....................***......

Generation = 16, Population = 16.
....................**........
..................**...*......
..................**.*.*......
..................**.*.**.....
....................*.*.......

*** Life<ConwayCell> 9x23 ***

Generation = 0, Population = 21.
.....*...*.............
*.....................*
.*................*....
.*..*..................
......*......*....*.*..
.......*......*...*....
.......**....*.........
............*..*.......
.....*.................

Generation = 2, Population = 12.
.......................
.......................
.......................
.......................
.......*..........***..
......*.*....**........
......*.*....**........
.......................
.......................

Generation = 4, Population = 9.
.......................
.......................
.......................
.......................
.......*..........***..
.......*.....**........
.............**........
.......................
.......................

Generation = 6, Population = 7.
.......................
.......................
.......................
.......................
..................***..
.............**........
.............**........
.......................
.......................

Generation = 8, Population = 7.
.......................
.......................
.......................
.......................
..................***..
.............**........
.............**........
.......................
.......................

Generation = 10, Population = 7.
.......................
.......................
.......................
.......................
..................***..
.............**........
.............**........
.......................
.......................

Generation = 12, Population = 7.
.......................
.......................
.......................
.......................
..................***..
.............**........
.............**........
.......................
.......................

Generation = 14, Population = 7.
.......................
.......................
.......................
.......................
..................***..
.............**........
.............**........
.......................
.......................

Generation = 16, Population = 7.
.......................
.......................
.......................
.......................
..................***..
.............**........
.............**........
.......................
.......................

Generation = 18, Population = 7.
.......................
.......................
.......................
.......................
..................***..
.............**........
.............**........
.......................
.......................

Generation = 20, Population = 7.
.......................
.......................
.......................
.......................
..................***..
.............**........
.............**........
.......................
.......................

Generation = 22, Population = 7.
.......................
.......................
.......................
.......................
..................***..
.............**........
.............**........
.......................
.......................

Generation = 24, Population = 7.
.......................
.......................
.......................
.......................
..................***..
.............**........
.............**........
.......................
.......................

Generation = 26, Population = 7.
.......................
.......................
.......................
.......................
..................***..
.............**........
.............**........
.......................
.......................

*** Life<ConwayCell> 5x25 ***

Generation = 0, Population = 12.
.**.........*............
.....*..*................
...*.*....*....*....*....
.......*.*...............
.........................

Generation = 5, Population = 0.
.........................
.........................
.........................
.........................
.........................

Generation = 10, Population = 0.
.........................
.........................
.........................
.........................
.........................

Generation = 15, Population = 0.
.........................
.........................
.........................
.........................
.........................

Generation = 20, Population = 0.
.........................
.........................
.........................
.........................
.........................

Generation = 25, Population = 0.
.........................
.........................
.........................
.........................
.........................

*** Life<ConwayCell> 16x11 ***

Generation = 0, Population = 15.
...*.......
...*....**.
.*..*......
....**.....
...........
.*........*
...........
.........*.
..........*
...........
.......*...
..*........
...........
...*.......
...........
...........

Generation = 2, Population = 6.
...*.......
..*..*.....
..*........
...*.*.....
...........
...........
...........
...........
...........
...........
...........
...........
...........
...........
...........
...........

Generation = 4, Population = 5.
...........
..*.*......
..*.*......
...*.......
...........
...........
...........
...........
...........
...........
...........
...........
...........
...........
...........
...........

Generation = 6, Population = 2.
...........
...........
...*.......
...*.......
...........
...........
...........
...........
...........
...........
...........
...........
...........
...........
...........
...........

Generation = 8, Population = 0.
...........
...........
...........
...........
...........
...........
...........
...........
...........
...........
...........
...........
...........
...........
...........
...........

Generation = 10, Population = 0.
...........
...........
...........
...........
...........
...........
...........
...........
...........
...........
...........
...........
...........
...........
...........
...........

Generation = 12, Population = 0.
...........
...........
...........
...........
...........
...........
...........
...........
...........
...........
...........
...........
...........
...........
...........
...........

Generation = 14, Population = 0.
...........
...........
...........
...........
...........
...........
...........
...........
...........
...........
...........
...........
...........
...........
...........
...........

Generation = 16, Population = 0.
...........
...........
...........
...........
...........
...........
...........
...........
...........
...........
...........
...........
...........
...........
...........
...........

*** Life<ConwayCell> 11x20 ***

Generation = 0, Population = 17.
.....*..............
...........**.....*.
.......*............
..................**
....*...............
..................*.
*...........*..*....
............*..*....
........*.........*.
..........*.........
....................

Generation = 4, Population = 0.
....................
....................
....................
....................
....................
....................
....................
....................
....................
....................
....................

Generation = 8, Population = 0.
....................
....................
....................
....................
....................
....................
....................
....................
....................
....................
....................

Generation = 12, Population = 0.
....................
....................
....................
....................
....................
....................
....................
....................
....................
....................
....................

Generation = 16, Population = 0.
....................
....................
....................
....................
....................
....................
....................
....................
....................
....................
....................

*** Life<ConwayCell> 9x22 ***

Generation = 0, Population = 18.
.*....................
.........*............
...............**.*...
*........**...........
....*.....*...........
......................
....*.................
....*..*.......*.*....
.*........**..........

Generation = 5, Population = 6.
......................
......................
.........**...........
........*..*..........
.........**...........
......................
......................
......................
......................

Generation = 10, Population = 6.
......................
......................
.........**...........
........*..*..........
.........**...........
......................
......................
......................
......................

Generation = 15, Population = 6.
......................
......................
.........**...........
........*..*..........
.........**...........
......................
......................
......................
......................

Generation = 20, Population = 6.
......................
......................
.........**...........
........*..*..........
.........**...........
......................
......................
......................
......................

Generation = 25, Population = 6.
......................
......................
.........**...........
........*..*..........
.........**...........
......................
......................
......................
......................
